<?xml version="1.0" encoding="UTF-8" standalone="no"?>
<!-- Created with Inkscape (https://www.inkscape.org/) -->
<svg
   xmlns:dc="http://purl.org/dc/elements/1.1/"
   xmlns:cc="http://creativecommons.org/ns#"
   xmlns:rdf="http://www.w3.org/1999/02/22-rdf-syntax-ns#"
   xmlns:svg="http://www.w3.org/2000/svg"
   xmlns="http://www.w3.org/2000/svg"
   style="shape-rendering:crispEdges"
   id="svg8"
   version="1.1"
   viewBox="0 0 42.068749 26.987501"
   height="102"
   width="159">
  <title
     id="title817">Minipix - Dog 14</title>
  <defs
     id="defs2" />
  <metadata
     id="metadata5">
    <rdf:RDF>
      <cc:Work
         rdf:about="">
        <dc:format>image/svg+xml</dc:format>
        <dc:type
           rdf:resource="http://purl.org/dc/dcmitype/StillImage" />
        <dc:title>Minipix - Dog 14</dc:title>
        <dc:publisher>
          <cc:Agent>
            <dc:title>Openclipart.org</dc:title>
          </cc:Agent>
        </dc:publisher>
        <dc:contributor>
          <cc:Agent>
            <dc:title>Original artists - Sara and Fred Crone

conversion to SVG...
Arvin61r58 (https://openclipart.org/artist/Arvin61r58)</dc:title>
          </cc:Agent>
        </dc:contributor>
        <dc:creator>
          <cc:Agent>
            <dc:title>Arvin61r58</dc:title>
          </cc:Agent>
        </dc:creator>
        <dc:identifier>https://openclipart.org/</dc:identifier>
        <dc:source />
        <dc:subject>
          <rdf:Bag>
            <rdf:li>1-Bit</rdf:li>
            <rdf:li>8-bit</rdf:li>
            <rdf:li>animal</rdf:li>
            <rdf:li>Beagle Bros</rdf:li>
            <rdf:li>cartoon</rdf:li>
            <rdf:li>dog</rdf:li>
            <rdf:li>Minipix</rdf:li>
            <rdf:li>pet</rdf:li>
            <rdf:li>old school</rdf:li>
            <rdf:li>oldskool</rdf:li>
            <rdf:li>pixel art</rdf:li>
            <rdf:li>retro</rdf:li>
          </rdf:Bag>
        </dc:subject>
        <dc:description>From the Beagle Bros Minipix clipart collection</dc:description>
        <cc:license
           rdf:resource="http://creativecommons.org/publicdomain/zero/1.0/" />
      </cc:Work>
      <cc:License
         rdf:about="http://creativecommons.org/publicdomain/zero/1.0/">
        <cc:permits
           rdf:resource="http://creativecommons.org/ns#Reproduction" />
        <cc:permits
           rdf:resource="http://creativecommons.org/ns#Distribution" />
        <cc:permits
           rdf:resource="http://creativecommons.org/ns#DerivativeWorks" />
      </cc:License>
    </rdf:RDF>
  </metadata>
  <g
     transform="translate(-2.2489584,-269.74791)"
     id="layer1">
    <g
       style="stroke-width:1.99999988"
       transform="matrix(0.50000004,0,0,0.50000004,-59.729695,192.43868)"
       id="g1091">
      <path
         id="path1084"
         d="m 127.66146,202.24346 v -2.64584 h 0.52917 0.52917 v -0.52916 -0.52917 h 1.05833 1.05833 v -1.05833 -1.05834 h -1.5875 -1.5875 v -0.52916 -0.52917 h 2.64583 2.64584 v 3.175 3.175 h -1.05834 -1.05833 v 0.52917 0.52916 h -0.52917 -0.52916 v 0.52917 0.52917 h -0.52917 -0.52917 v 0.52916 0.52917 h -0.52916 -0.52917 z m 40.21667,-2.11667 v -1.5875 h -0.52917 -0.52916 v -0.52917 -0.52916 h 16.93333 16.93333 v 0.52916 0.52917 h -0.52916 -0.52917 v 1.5875 1.5875 h -15.875 -15.875 z m -1.05833,-4.23333 v -0.52917 h -0.52917 -0.52917 v -1.5875 -1.5875 h 11.64167 11.64167 v 0.52917 0.52916 h 1.5875 1.5875 v -0.52916 -0.52917 h 0.52916 0.52917 v 0.52917 0.52916 h 1.5875 1.5875 v -0.52916 -0.52917 h 2.64583 2.64584 v 1.5875 1.5875 h -0.52917 -0.52917 v 0.52917 0.52916 H 183.75313 166.8198 Z m -9.52501,-3.175 v -0.52917 h -0.52916 -0.52917 v -0.52917 -0.52916 h 0.52917 0.52916 v -0.52917 -0.52917 h 0.52917 0.52917 v 0.52917 0.52917 h 0.52916 0.52917 v 0.52916 0.52917 h -0.52917 -0.52916 v 0.52917 0.52916 h -0.52917 -0.52917 z m 32.80834,-1.5875 v -1.05834 h -1.05833 -1.05834 v -0.52916 -0.52917 h -0.52916 -0.52917 v -0.52917 -0.52916 h -0.52917 -0.52916 v -0.52917 -0.52917 h -0.52917 -0.52917 v -0.52916 -0.52917 h -0.52916 -0.52917 v -7.40833 -7.40834 h 0.52917 0.52916 v -1.05833 -1.05833 h -0.52916 -0.52917 v 0.52916 0.52917 h -0.52917 -0.52916 v 1.05833 1.05834 h -1.05834 -1.05833 v -1.05834 -1.05833 h -2.11667 -2.11666 v 0.52917 0.52916 h 1.5875 1.5875 v 6.87917 6.87917 h 0.52916 0.52917 v 0.52916 0.52917 h 0.52917 0.52916 v 0.52917 0.52916 h 1.05834 1.05833 v 0.52917 0.52917 h -4.23333 -4.23334 v -0.52917 -0.52917 h -0.52916 -0.52917 v -0.52916 -0.52917 h -0.52917 -0.52916 v 1.05833 1.05834 h 0.52916 0.52917 v 1.5875 1.5875 h -2.11667 -2.11666 v -7.9375 -7.9375 h -0.52917 -0.52917 v -0.52917 -0.52917 h 1.5875 1.5875 v -0.52916 -0.52917 h -1.5875 -1.5875 v -1.05833 -1.05834 h 1.05834 1.05833 v -2.64583 -2.64583 h -1.5875 -1.5875 v -1.5875 -1.5875 h 1.05833 1.05834 v -0.52917 -0.52917 h 1.05833 1.05833 v -0.52916 -0.52917 h 1.05834 1.05833 v -0.52917 -0.52916 h 1.05833 1.05834 v 0.52916 0.52917 h 1.5875 1.5875 v 0.52917 0.52916 h 2.11666 2.11667 v -1.05833 -1.05833 h 1.5875 1.5875 v 0.52916 0.52917 h 2.64583 2.64584 v -0.52917 -0.52916 h 1.5875 1.5875 v 1.05833 1.05833 h 2.11666 2.11667 v 0.52917 0.52917 h 1.5875 1.5875 v 0.52916 0.52917 h 0.79375 0.79375 v 2.11667 2.11666 h -0.52917 -0.52916 v 0.52917 0.52917 h -0.26459 -0.26458 v -1.05834 -1.05833 h -2.11667 -2.11666 v 0.52917 0.52916 h -0.52917 -0.52917 v -0.52916 -0.52917 h -1.5875 -1.5875 v 1.05833 1.05834 h 0.52917 0.52917 v -0.52917 -0.52917 h 0.52916 0.52917 v 0.52917 0.52917 h 1.5875 1.5875 v -0.52917 -0.52917 h 0.52917 0.52916 v 9.525 9.525 h -0.52916 -0.52917 v 0.52917 0.52917 h -0.52917 -0.52916 v 0.52916 0.52917 h -0.52917 -0.52917 v 0.52917 0.52916 h -0.52916 -0.52917 v 0.52917 0.52917 h -0.52917 -0.52916 v 0.52916 0.52917 h -0.52917 -0.52917 v -0.52917 -0.52916 h -0.52916 -0.52917 v -2.11667 -2.11667 h 0.52917 0.52916 v -0.52916 -0.52917 h 0.52917 0.52917 v -2.64583 -2.64584 h -2.64584 -2.64583 v 2.64584 2.64583 h 0.52917 0.52916 v 0.52917 0.52916 h 0.52917 0.52917 v 2.11667 2.11667 h -0.52917 -0.52917 v 0.52916 0.52917 h -0.52916 -0.52917 z m 5.29167,-1.5875 v -0.52917 h -0.52917 -0.52917 v 0.52917 0.52916 h 0.52917 0.52917 z m -4.23334,-1.05834 v -0.52916 h -0.52916 -0.52917 v 0.52916 0.52917 h 0.52917 0.52916 z m -2.11666,-1.05833 v -0.52917 h -0.52917 -0.52917 v 0.52917 0.52917 h 0.52917 0.52917 z m 7.40833,0 v -0.52917 h -0.52917 -0.52916 v 0.52917 0.52917 h 0.52916 0.52917 z m 2.11667,0 v -0.52917 h -0.52917 -0.52917 v 0.52917 0.52917 h 0.52917 0.52917 z m -7.40834,-13.75833 v -0.52917 h 1.5875 1.5875 v 0.52917 0.52916 h 1.05834 1.05833 v -0.52916 -0.52917 h 1.05833 1.05834 v -0.52917 -0.52916 h -5.82084 -5.82083 v 0.52916 0.52917 h 1.05833 1.05834 v 0.52917 0.52916 h 1.05833 1.05833 z m -14.81666,-1.5875 v -1.05834 h -0.52917 -0.52917 v 0.52917 0.52917 h -1.5875 -1.5875 v 0.52916 0.52917 h 2.11667 2.11667 z m 17.99166,-2.64584 v -0.52916 h -2.11666 -2.11667 v -0.52917 -0.52917 h -2.64583 -2.64584 v 0.52917 0.52917 h 2.64584 2.64583 v 0.52916 0.52917 h 2.11667 2.11666 z m -19.05,20.6375 v -1.05833 h 4.23334 4.23333 v 1.05833 1.05834 h -4.23333 -4.23334 z m 9.525,0 v -1.05833 h 0.52917 0.52917 v 0.52917 0.52916 h 0.52916 0.52917 v 0.52917 0.52917 h -1.05833 -1.05834 z m 13.75834,0.52917 v -0.52917 h 0.52916 0.52917 v -0.52916 -0.52917 h 0.52917 0.52916 v 1.05833 1.05834 h -1.05833 -1.05833 z m -60.325,-10.05417 v -6.35 h 1.5875 1.5875 v 0.52917 0.52917 h 0.52916 0.52917 v -1.05834 -1.05833 h 0.52917 0.52916 v 0.52917 0.52916 h 0.52917 0.52917 v -0.52916 -0.52917 h 1.5875 1.5875 v 0.52917 0.52916 h 0.52916 0.52917 v -0.52916 -0.52917 h 1.05833 1.05834 v 0.52917 0.52916 h -0.52917 -0.52917 v 0.52917 0.52917 h 0.52917 0.52917 v 0.52916 0.52917 h -0.52917 -0.52917 v 0.52917 0.52916 h 0.52917 0.52917 v 0.52917 0.52917 h -1.05834 -1.05833 v -0.52917 -0.52917 h -0.52917 -0.52916 v 0.52917 0.52917 h -1.05834 -1.05833 v 0.52916 0.52917 h 1.05833 1.05834 v 0.52917 0.52916 h 0.52916 0.52917 v -0.52916 -0.52917 h 0.52917 0.52916 v 3.70417 3.70416 h -0.52916 -0.52917 v -0.52916 -0.52917 h -0.52917 -0.52916 v 0.52917 0.52916 h -1.5875 -1.5875 v -0.52916 -0.52917 h -0.52917 -0.52917 v 0.52917 0.52916 h -1.5875 -1.5875 v -0.52916 -0.52917 h -0.52916 -0.52917 v 0.52917 0.52916 h -0.52917 -0.52916 z m 4.23333,4.7625 v -0.52916 h -0.52917 -0.52917 v 0.52916 0.52917 h 0.52917 0.52917 z m 4.23333,0 v -0.52916 h -0.52916 -0.52917 v 0.52916 0.52917 h 0.52917 0.52916 z m -6.35,-1.05833 v -0.52917 h -0.52916 -0.52917 v 0.52917 0.52917 h 0.52917 0.52916 z m 4.23334,0 v -0.52917 h -0.52917 -0.52917 v 0.52917 0.52917 h 0.52917 0.52917 z m 4.23333,0 v -0.52917 h -0.52917 -0.52916 v 0.52917 0.52917 h 0.52916 0.52917 z m -6.35,-1.05833 v -0.52917 h -0.52917 -0.52917 v 0.52917 0.52916 h 0.52917 0.52917 z m 4.23333,0 v -0.52917 h -0.52916 -0.52917 v 0.52917 0.52916 h 0.52917 0.52916 z m -6.35,-1.05834 v -0.52916 h -0.52916 -0.52917 v 0.52916 0.52917 h 0.52917 0.52916 z m 4.23334,0 v -0.52916 h -0.52917 -0.52917 v 0.52916 0.52917 h 0.52917 0.52917 z m 4.23333,0 v -0.52916 h -0.52917 -0.52916 v 0.52916 0.52917 h 0.52916 0.52917 z m -6.35,-1.05833 v -0.52917 h -0.52917 -0.52917 v 0.52917 0.52917 h 0.52917 0.52917 z m 4.23333,0 v -0.52917 h -0.52916 -0.52917 v 0.52917 0.52917 h 0.52917 0.52916 z m -6.35,-1.05833 v -0.52917 h -0.52916 -0.52917 v 0.52917 0.52916 h 0.52917 0.52916 z m 4.23334,0 v -0.52917 h -0.52917 -0.52917 v 0.52917 0.52916 h 0.52917 0.52917 z m -2.11667,-1.05834 v -0.52916 h -0.52917 -0.52917 v 0.52916 0.52917 h 0.52917 0.52917 z m -2.11667,-1.05833 v -0.52917 h -0.52916 -0.52917 v 0.52917 0.52917 h 0.52917 0.52916 z m 4.23334,0 v -0.52917 h -0.52917 -0.52917 v 0.52917 0.52917 h 0.52917 0.52917 z m -2.11667,-1.05833 v -0.52917 h -0.52917 -0.52917 v 0.52917 0.52916 h 0.52917 0.52917 z m 4.23333,0 v -0.52917 h -0.52916 -0.52917 v 0.52917 0.52916 h 0.52917 0.52916 z m -6.35,-1.05834 v -0.52916 h -0.52916 -0.52917 v 0.52916 0.52917 h 0.52917 0.52916 z m 4.23334,0 v -0.52916 h -0.52917 -0.52917 v 0.52916 0.52917 h 0.52917 0.52917 z m 4.23333,0 v -0.52916 h -0.52917 -0.52916 v 0.52916 0.52917 h 0.52916 0.52917 z m -2.11667,-1.05833 v -0.52917 h -0.52916 -0.52917 v 0.52917 0.52917 h 0.52917 0.52916 z m 16.93334,10.58333 v -0.52916 h -0.52917 -0.52917 v -0.52917 -0.52917 h 0.52917 0.52917 v -0.52916 -0.52917 h 0.52916 0.52917 v 0.52917 0.52916 h 0.52917 0.52916 v 0.52917 0.52917 h -0.52916 -0.52917 v 0.52916 0.52917 h -0.52917 -0.52916 z m -11.64167,-10.05416 v -3.175 h 0.52917 0.52916 v 3.175 3.175 h -0.52916 -0.52917 z m 2.11666,-1.05834 v -1.05833 h 6.35 6.35001 v -3.175 -3.175 h 1.5875 1.5875 v 0.52917 0.52916 h -1.05834 -1.05833 v 0.52917 0.52917 h 1.05833 1.05834 v 0.52916 0.52917 h -1.05834 -1.05833 v 2.64583 2.64584 h -6.87917 -6.87916 z m -17.99166,-1.5875 v -0.52916 h -0.52917 -0.52917 v -0.52917 -0.52917 h -0.52916 -0.52917 v -0.52916 -0.52917 h -0.52917 -0.52916 v -0.52917 -0.52916 h -0.52917 -0.52917 v -3.175 -3.175 h 0.52917 0.52917 v -0.52917 -0.52917 h 0.52916 0.52917 v -0.52916 -0.52917 h 0.52917 0.52916 v -0.52917 -0.52916 h 1.05834 1.05833 v -0.52917 -0.52917 h 5.29167 5.29167 v 0.52917 0.52917 h 0.52916 0.52917 v 0.52916 0.52917 h 0.52917 0.52916 v 0.52917 0.52916 h -5.82083 -5.82083 v 1.5875 1.5875 h -1.05834 -1.05833 v 2.11667 2.11667 h 0.52917 0.52916 v 2.11666 2.11667 h -0.52916 -0.52917 z m 2.11667,-1.5875 v -2.11666 h 0.52916 0.52917 v -1.05834 -1.05833 h -0.52917 -0.52916 v 0.52917 0.52916 h -0.52917 -0.52917 v -1.05833 -1.05833 h 1.05834 1.05833 v -1.5875 -1.5875 h 5.29167 5.29166 v 1.05833 1.05833 h 1.05834 1.05833 v 0.52917 0.52917 h -1.05833 -1.05834 v 2.11666 2.11667 h 2.11667 2.11667 v 0.52917 0.52916 h -2.11667 -2.11667 v 0.52917 0.52917 h -0.52916 -0.52917 v -0.52917 -0.52917 h -0.52917 -0.52916 v 0.52917 0.52917 h -3.175 -3.175 v 0.52916 0.52917 h -1.5875 -1.5875 z m 11.64166,-0.52916 v -0.52917 h -0.52917 -0.52916 v 0.52917 0.52916 h 0.52916 0.52917 z m -2.11667,-6.35 v -0.52917 h -1.05833 -1.05833 v 0.52917 0.52916 h 1.05833 1.05833 z m 7.40834,6.35 v -1.5875 h 0.52916 0.52917 v 1.5875 1.5875 h -0.52917 -0.52916 z m 2.11666,0.52916 v -1.05833 h 3.70417 3.70417 v -2.64583 -2.64584 h 1.05833 1.05834 v 0.52917 0.52917 h -0.52917 -0.52917 v 3.175 3.175 h -4.23333 -4.23334 z"
         style="fill:#fdfdfd;stroke-width:1.99999988" />
      <path
         id="path1080"
         d="m 126.60313,202.24346 v -3.70417 h 0.52916 0.52917 v -0.52917 -0.52916 h -0.52917 -0.52916 v -1.5875 -1.5875 h 4.23333 4.23333 v 0.52916 0.52917 h 3.17501 3.17499 v -3.70417 -3.70416 h -2.11666 -2.11667 v -6.87917 -6.87917 h -1.05833 -1.05834 v -0.52916 -0.52917 h -0.52916 -0.52917 v -0.52917 -0.52916 h -0.52917 -0.52916 v -0.52917 -0.52917 h -0.52917 -0.52917 v -0.52916 -0.52917 h -0.52916 -0.52917 v -4.23333 -4.23334 h 0.52917 0.52916 v -0.52916 -0.52917 h 0.52917 0.52917 v -0.52917 -0.52916 h 0.52916 0.52917 v -0.52917 -0.52917 h 1.05833 1.05834 v -0.52916 -0.52917 h 6.35 6.35 v 0.52917 0.52916 h 0.52916 0.52917 v 0.52917 0.52917 h 0.52917 0.52916 v 0.52916 0.52917 h 0.52917 0.52917 v 1.05833 1.05834 h -0.52917 -0.52917 v 0.52916 0.52917 h 1.05834 1.05833 v 1.5875 1.5875 h -1.05833 -1.05834 v 1.05833 1.05834 h 1.58751 1.5875 v -0.52917 -0.52917 h 1.5875 1.5875 v 0.52917 0.52917 h 3.175 3.175 v -2.64584 -2.64583 h 1.5875 1.5875 v -0.52917 -0.52916 h 0.52916 0.52917 v -0.52917 -0.52917 h 0.52917 0.52916 v -0.52916 -0.52917 h 1.05834 1.05833 v -0.52917 -0.52916 h 1.05833 1.05834 v -0.52917 -0.52917 h 2.11666 2.11667 v 0.52917 0.52917 h 1.5875 1.5875 v 0.52916 0.52917 h 1.05833 1.05834 v -0.52917 -0.52916 h 0.52916 0.52917 v -0.52917 -0.52917 h 1.5875 1.5875 v 0.52917 0.52917 h 2.64583 2.64584 v -0.52917 -0.52917 h 1.5875 1.5875 v 0.52917 0.52917 h 0.52916 0.52917 v 0.52916 0.52917 h 2.11667 2.11666 v 0.52917 0.52916 h 1.32292 1.32292 v 0.52917 0.52917 h 1.05833 1.05833 v 3.175 3.175 h -0.52916 -0.52917 v 7.9375 7.9375 h -0.52917 -0.52916 v 0.52916 0.52917 h -0.26459 -0.26458 v 0.52917 0.52916 h -0.52917 -0.52916 v 2.11667 2.11667 h 0.52916 0.52917 v 2.11666 2.11667 h -0.52917 -0.52916 v 1.5875 1.5875 h -0.52917 -0.52917 v 2.11667 2.11666 H 183.75313 166.8198 v -2.11666 -2.11667 h -0.52917 -0.52917 v -1.5875 -1.5875 h -0.52916 -0.52917 v -2.11667 -2.11666 h 2.11667 2.11666 v -7.40834 -7.40833 h -7.40833 -7.40833 v 1.5875 1.5875 h -1.5875 -1.5875 v 10.58333 10.58334 h -0.52917 -0.52917 v 1.05833 1.05833 h -8.99583 -8.99583 v 0.52917 0.52917 h -0.52917 -0.52917 v 0.52916 0.52917 h -0.52916 -0.52917 v 0.52917 0.52916 h -1.5875 -1.5875 z m 2.11667,2.11666 v -0.52916 h 0.52916 0.52917 v -0.52917 -0.52917 h 0.52917 0.52916 v -0.52916 -0.52917 h 1.05834 1.05833 v -3.175 -3.175 h -2.64583 -2.64584 v 0.52917 0.52916 h 1.5875 1.5875 v 1.05834 1.05833 h -1.05833 -1.05833 v 0.52917 0.52916 h -0.52917 -0.52917 v 2.64584 2.64583 h 0.52917 0.52917 z m 70.90833,-4.23333 v -1.5875 h 0.52917 0.52916 v -0.52917 -0.52916 H 183.75313 166.8198 v 0.52916 0.52917 h 0.52916 0.52917 v 1.5875 1.5875 h 15.875 15.875 z m 1.05833,-4.23333 v -0.52917 h 0.52917 0.52917 v -1.5875 -1.5875 h -2.64584 -2.64583 v 0.52917 0.52916 h -1.5875 -1.5875 v -0.52916 -0.52917 h -0.52917 -0.52916 v 0.52917 0.52916 h -1.5875 -1.5875 v -0.52916 -0.52917 h -11.64167 -11.64167 v 1.5875 1.5875 h 0.52917 0.52917 v 0.52917 0.52916 h 16.93333 16.93333 z m -9.525,-4.23334 v -0.52916 h 0.52917 0.52917 v -2.11667 -2.11667 h -0.52917 -0.52917 v -0.52916 -0.52917 h -0.52916 -0.52917 v -2.64583 -2.64584 h 2.64583 2.64584 v 2.64584 2.64583 h -0.52917 -0.52917 v 0.52917 0.52916 h -0.52916 -0.52917 v 2.11667 2.11667 h 0.52917 0.52916 v 0.52916 0.52917 h 0.52917 0.52917 v -0.52917 -0.52916 h 0.52916 0.52917 v -0.52917 -0.52917 h 0.52917 0.52916 v -0.52916 -0.52917 h 0.52917 0.52917 v -0.52917 -0.52916 h 0.52916 0.52917 v -0.52917 -0.52917 h 0.52917 0.52916 v -9.525 -9.525 h -0.52916 -0.52917 v 0.52917 0.52917 h -1.5875 -1.5875 v -0.52917 -0.52917 h -0.52917 -0.52916 v 0.52917 0.52917 h -0.52917 -0.52917 v -1.05834 -1.05833 h 1.5875 1.5875 v 0.52917 0.52916 h 0.52917 0.52917 v -0.52916 -0.52917 h 2.11666 2.11667 v 1.05833 1.05834 h 0.26458 0.26459 v -0.52917 -0.52917 h 0.52916 0.52917 v -2.11666 -2.11667 h -0.79375 -0.79375 v -0.52917 -0.52916 h -1.5875 -1.5875 v -0.52917 -0.52917 h -2.11667 -2.11666 v -1.05833 -1.05833 h -1.5875 -1.5875 v 0.52916 0.52917 h -2.64584 -2.64583 v -0.52917 -0.52916 h -1.5875 -1.5875 v 1.05833 1.05833 h -2.11667 -2.11666 v -0.52916 -0.52917 h -1.5875 -1.5875 v -0.52917 -0.52916 h -1.05834 -1.05833 v 0.52916 0.52917 h -1.05833 -1.05834 v 0.52917 0.52916 h -1.05833 -1.05833 v 0.52917 0.52917 h -1.05834 -1.05833 v 1.5875 1.5875 h 1.5875 1.5875 v 2.64583 2.64583 h -1.05833 -1.05834 v 1.05834 1.05833 h 1.5875 1.5875 v 0.52917 0.52916 h -1.5875 -1.5875 v 0.52917 0.52917 h 0.52917 0.52917 v 7.9375 7.9375 h 2.11666 2.11667 v -1.5875 -1.5875 h -0.52917 -0.52916 v -1.05834 -1.05833 h 0.52916 0.52917 v 0.52917 0.52916 h 0.52917 0.52916 v 0.52917 0.52917 h 4.23334 4.23333 v -0.52917 -0.52917 h -1.05833 -1.05834 v -0.52916 -0.52917 h -0.52916 -0.52917 v -0.52917 -0.52916 h -0.52917 -0.52916 v -6.87917 -6.87917 h -1.5875 -1.5875 v -0.52916 -0.52917 h 2.11666 2.11667 v 1.05833 1.05834 h 1.05833 1.05834 v -1.05834 -1.05833 h 0.52916 0.52917 v -0.52917 -0.52916 h 0.52917 0.52916 v 1.05833 1.05833 h -0.52916 -0.52917 v 7.40834 7.40833 h 0.52917 0.52916 v 0.52917 0.52916 h 0.52917 0.52917 v 0.52917 0.52917 h 0.52916 0.52917 v 0.52916 0.52917 h 0.52917 0.52916 v 0.52917 0.52916 h 1.05834 1.05833 v 1.05834 1.05833 h 0.52917 0.52916 z m 3.175,-2.11666 v -0.52917 h 0.52917 0.52917 v 0.52917 0.52916 h -0.52917 -0.52917 z m -4.23333,-1.05834 v -0.52916 h 0.52917 0.52916 v 0.52916 0.52917 h -0.52916 -0.52917 z m -2.11667,-1.05833 v -0.52917 h 0.52917 0.52917 v 0.52917 0.52917 h -0.52917 -0.52917 z m 7.40834,0 v -0.52917 h 0.52916 0.52917 v 0.52917 0.52917 h -0.52917 -0.52916 z m 2.11666,0 v -0.52917 h 0.52917 0.52917 v 0.52917 0.52917 h -0.52917 -0.52917 z m -8.46666,-13.75833 v -0.52917 h -1.05834 -1.05833 v -0.52917 -0.52916 h 5.82083 5.82084 v 0.52916 0.52917 h -1.05834 -1.05833 v 0.52917 0.52916 h -1.05833 -1.05834 v -0.52916 -0.52917 h -1.5875 -1.5875 v 0.52917 0.52916 h -1.05833 -1.05833 z m -16.93334,-1.05834 v -0.52916 h 1.5875 1.5875 v -0.52917 -0.52917 h 0.52917 0.52917 v 1.05834 1.05833 h -2.11667 -2.11667 z m 17.99167,-3.175 v -0.52916 h -2.64583 -2.64584 v -0.52917 -0.52917 h 2.64584 2.64583 v 0.52917 0.52917 h 2.11667 2.11666 v 0.52916 0.52917 h -2.11666 -2.11667 z m -6.35,20.6375 v -1.05833 h -4.23333 -4.23334 v 1.05833 1.05834 h 4.23334 4.23333 z m 3.175,0.52917 v -0.52917 h -0.52917 -0.52916 v -0.52916 -0.52917 h -0.52917 -0.52917 v 1.05833 1.05834 h 1.05834 1.05833 z m 13.75833,-0.52917 v -1.05833 h -0.52916 -0.52917 v 0.52917 0.52916 h -0.52917 -0.52916 v 0.52917 0.52917 h 1.05833 1.05833 z m -61.38333,-3.70416 v -0.52917 h 0.52917 0.52916 v 0.52917 0.52916 h 1.5875 1.5875 v -0.52916 -0.52917 h 0.52917 0.52917 v 0.52917 0.52916 h 1.5875 1.5875 v -0.52916 -0.52917 h 0.52916 0.52917 v 0.52917 0.52916 h 0.52917 0.52916 v -3.70416 -3.70417 h -0.52916 -0.52917 v 0.52917 0.52916 h -0.52917 -0.52916 v -0.52916 -0.52917 h -1.05834 -1.05833 v -0.52917 -0.52916 h 1.05833 1.05834 v -0.52917 -0.52917 h 0.52916 0.52917 v 0.52917 0.52917 h 1.05833 1.05834 v -0.52917 -0.52917 h -0.52917 -0.52917 v -0.52916 -0.52917 h 0.52917 0.52917 v -0.52917 -0.52916 h -0.52917 -0.52917 v -0.52917 -0.52917 h 0.52917 0.52917 v -0.52916 -0.52917 h -1.05834 -1.05833 v 0.52917 0.52916 h -0.52917 -0.52916 v -0.52916 -0.52917 h -1.5875 -1.5875 v 0.52917 0.52916 h -0.52917 -0.52917 v -0.52916 -0.52917 h -0.52916 -0.52917 v 1.05833 1.05834 h -0.52917 -0.52916 v -0.52917 -0.52917 h -1.5875 -1.5875 v 6.35 6.35 h 0.52916 0.52917 z m 2.11667,-1.05834 v -0.52916 h 0.52916 0.52917 v 0.52916 0.52917 h -0.52917 -0.52916 z m 4.23333,0 v -0.52916 h 0.52917 0.52916 v 0.52916 0.52917 h -0.52916 -0.52917 z m -6.35,-1.05833 v -0.52917 h 0.52917 0.52916 v 0.52917 0.52917 h -0.52916 -0.52917 z m 4.23333,0 v -0.52917 h 0.52917 0.52917 v 0.52917 0.52917 h -0.52917 -0.52917 z m 4.23334,0 v -0.52917 h 0.52916 0.52917 v 0.52917 0.52917 h -0.52917 -0.52916 z m -6.35,-1.05833 v -0.52917 h 0.52916 0.52917 v 0.52917 0.52916 h -0.52917 -0.52916 z m 4.23333,0 v -0.52917 h 0.52917 0.52916 v 0.52917 0.52916 h -0.52916 -0.52917 z m -6.35,-1.05834 v -0.52916 h 0.52917 0.52916 v 0.52916 0.52917 h -0.52916 -0.52917 z m 4.23333,0 v -0.52916 h 0.52917 0.52917 v 0.52916 0.52917 h -0.52917 -0.52917 z m 4.23334,0 v -0.52916 h 0.52916 0.52917 v 0.52916 0.52917 h -0.52917 -0.52916 z m -6.35,-1.05833 v -0.52917 h 0.52916 0.52917 v 0.52917 0.52917 h -0.52917 -0.52916 z m 4.23333,0 v -0.52917 h 0.52917 0.52916 v 0.52917 0.52917 h -0.52916 -0.52917 z m -6.35,-1.05833 v -0.52917 h 0.52917 0.52916 v 0.52917 0.52916 h -0.52916 -0.52917 z m 4.23333,0 v -0.52917 h 0.52917 0.52917 v 0.52917 0.52916 h -0.52917 -0.52917 z m -2.11666,-1.05834 v -0.52916 h 0.52916 0.52917 v 0.52916 0.52917 h -0.52917 -0.52916 z m -2.11667,-1.05833 v -0.52917 h 0.52917 0.52916 v 0.52917 0.52917 h -0.52916 -0.52917 z m 4.23333,0 v -0.52917 h 0.52917 0.52917 v 0.52917 0.52917 h -0.52917 -0.52917 z m -2.11666,-1.05833 v -0.52917 h 0.52916 0.52917 v 0.52917 0.52916 h -0.52917 -0.52916 z m 4.23333,0 v -0.52917 h 0.52917 0.52916 v 0.52917 0.52916 h -0.52916 -0.52917 z m -6.35,-1.05834 v -0.52916 h 0.52917 0.52916 v 0.52916 0.52917 h -0.52916 -0.52917 z m 4.23333,0 v -0.52916 h 0.52917 0.52917 v 0.52916 0.52917 h -0.52917 -0.52917 z m 4.23334,0 v -0.52916 h 0.52916 0.52917 v 0.52916 0.52917 h -0.52917 -0.52916 z m -2.11667,-1.05833 v -0.52917 h 0.52917 0.52916 v 0.52917 0.52917 h -0.52916 -0.52917 z m 7.40833,0.52917 v -3.175 h -0.52916 -0.52917 v 3.175 3.175 h 0.52917 0.52916 z m 14.81667,-2.64584 v -2.64583 h 1.05833 1.05834 v -0.52917 -0.52916 h -1.05834 -1.05833 v -0.52917 -0.52917 h 1.05833 1.05834 v -0.52916 -0.52917 h -1.5875 -1.5875 v 3.175 3.175 h -6.35 -6.35 v 1.05833 1.05834 h 6.87916 6.87917 z m -30.69167,-1.5875 v -2.11666 h -0.52916 -0.52917 v -2.11667 -2.11667 h 1.05833 1.05834 v -1.5875 -1.5875 h 5.82083 5.82083 v -0.52916 -0.52917 h -0.52916 -0.52917 v -0.52917 -0.52916 h -0.52917 -0.52916 v -0.52917 -0.52917 h -5.29167 -5.29167 v 0.52917 0.52917 h -1.05833 -1.05833 v 0.52916 0.52917 h -0.52917 -0.52917 v 0.52917 0.52916 h -0.52916 -0.52917 v 0.52917 0.52917 h -0.52917 -0.52916 v 3.175 3.175 h 0.52916 0.52917 v 0.52916 0.52917 h 0.52917 0.52916 v 0.52917 0.52916 h 0.52917 0.52917 v 0.52917 0.52917 h 0.52916 0.52917 v 0.52916 0.52917 h 0.52917 0.52916 z m 4.23334,1.5875 v -0.52916 h 3.175 3.175 v -0.52917 -0.52917 h 0.52916 0.52917 v 0.52917 0.52917 h 0.52917 0.52916 v -0.52917 -0.52917 h 2.11667 2.11667 v -0.52916 -0.52917 h -2.11667 -2.11667 v -2.11667 -2.11666 h 1.05834 1.05833 v -0.52917 -0.52917 h -1.05833 -1.05834 v -1.05833 -1.05833 h -5.29166 -5.29167 v 1.5875 1.5875 h -1.05833 -1.05834 v 1.05833 1.05833 h 0.52917 0.52917 v -0.52916 -0.52917 h 0.52916 0.52917 v 1.05833 1.05834 h -0.52917 -0.52916 v 2.11666 2.11667 h 1.5875 1.5875 z m 7.40833,-2.11666 v -0.52917 h 0.52917 0.52916 v 0.52917 0.52916 h -0.52916 -0.52917 z m -3.175,-6.35 v -0.52917 h 1.05833 1.05834 v 0.52917 0.52916 h -1.05834 -1.05833 z m 10.58333,6.35 v -1.5875 h -0.52916 -0.52917 v 1.5875 1.5875 h 0.52917 0.52916 z m 9.525,-1.5875 v -3.175 h 0.52917 0.52917 v -0.52917 -0.52917 h -1.05834 -1.05833 v 2.64584 2.64583 h -3.70417 -3.70416 v 1.05833 1.05834 h 4.23333 4.23333 z m -9.525,24.87083 v -0.52917 h -0.52916 -0.52917 v -1.5875 -1.5875 h 0.52917 0.52916 v -0.52916 -0.52917 h 0.52917 0.52917 v -1.05833 -1.05834 h 0.52916 0.52917 v 1.05834 1.05833 h 0.52917 0.52916 v 0.52917 0.52916 h 0.52917 0.52917 v 1.5875 1.5875 h -0.52917 -0.52917 v 0.52917 0.52917 h -1.5875 -1.5875 z m 2.11667,-1.05833 v -0.52917 h 0.52917 0.52916 v -0.52917 -0.52916 h -0.52916 -0.52917 v -0.52917 -0.52917 h -0.52917 -0.52916 v 0.52917 0.52917 h -0.52917 -0.52917 v 0.52916 0.52917 h 0.52917 0.52917 v 0.52917 0.52916 h 0.52916 0.52917 z m 4.23333,-6.35 v -0.52917 h -0.52916 -0.52917 v -1.5875 -1.5875 h 0.52917 0.52916 v -0.52917 -0.52916 h 0.52917 0.52917 v -1.05834 -1.05833 h 0.52916 0.52917 v 1.05833 1.05834 h 0.52917 0.52916 v 0.52916 0.52917 h 0.52917 0.52917 v 1.5875 1.5875 h -0.52917 -0.52917 v 0.52917 0.52916 h -1.5875 -1.5875 z m 2.11667,-1.05834 v -0.52916 h 0.52917 0.52916 v -0.52917 -0.52917 h -0.52916 -0.52917 v -0.52916 -0.52917 h -0.52917 -0.52916 v 0.52917 0.52916 h -0.52917 -0.52917 v 0.52917 0.52917 h 0.52917 0.52917 v 0.52916 0.52917 h 0.52916 0.52917 z"
         style="fill:#000000;stroke-width:1.99999988" />
    </g>
  </g>
</svg>
